<?xml version="1.0" encoding="UTF-8"?>
<svg width="21px" height="19px" viewBox="0 0 21 19" version="1.1" xmlns="http://www.w3.org/2000/svg" xmlns:xlink="http://www.w3.org/1999/xlink">
    <!-- Generator: Sketch 49 (51002) - http://www.bohemiancoding.com/sketch -->
    <title>check-circle</title>
    <desc>Created with Sketch.</desc>
    <defs></defs>
    <g id="Page-1" stroke="none" stroke-width="1" fill="none" fill-rule="evenodd" stroke-linecap="round" stroke-linejoin="round">
        <g id="03_Rooms_Detail" transform="translate(-138.000000, -1550.000000)" stroke="#1A2B48">
            <g id="room-detail" transform="translate(-175.000000, 890.000000)">
                <g id="Group-2" transform="translate(310.000000, 523.000000)">
                    <g id="1" transform="translate(4.000000, 136.000000)">
                        <g id="check-circle" transform="translate(0.000000, 1.000000)">
                            <polyline id="Shape" points="19.5 0.499 5 18.499 0 13.499"></polyline>
                        </g>
                    </g>
                </g>
            </g>
        </g>
    </g>
</svg>