<?xml version="1.0" encoding="UTF-8"?>
<svg width="24px" height="24px" viewBox="0 0 24 24" version="1.1" xmlns="http://www.w3.org/2000/svg" xmlns:xlink="http://www.w3.org/1999/xlink">
    <!-- Generator: Sketch 53.2 (72643) - https://sketchapp.com -->
    <title>ico_close_3</title>
    <desc>Created with Sketch.</desc>
    <g id="Page-1" stroke="none" stroke-width="1" fill="none" fill-rule="evenodd" stroke-linecap="round" stroke-linejoin="round">
        <g id="20_Apartment_Offmenu" transform="translate(-246.000000, -30.000000)" stroke="#FFFFFF">
            <g id="offmenu">
                <g id="Group" transform="translate(246.000000, 30.000000)">
                    <g id="ico_close_3">
                        <path d="M23.5,0.5 L0.5,23.5" id="Shape"></path>
                        <path d="M23.5,23.5 L0.5,0.5" id="Shape"></path>
                    </g>
                </g>
            </g>
        </g>
    </g>
</svg>