2021-03-09T10:40:36+00:00 INFO Régénération des images pour l'ID de pièce jointe suivant : 8306
2021-03-09T10:42:27+00:00 INFO Régénération des images pour l'ID de pièce jointe suivant : 8306
2021-03-09T10:46:05+00:00 INFO Régénération des images pour l'ID de pièce jointe suivant : 8306
2021-03-09T10:51:49+00:00 INFO Régénération des images pour l'ID de pièce jointe suivant : 8306
2021-03-09T10:56:37+00:00 INFO Régénération des images pour l'ID de pièce jointe suivant : 8306
2021-03-09T11:01:52+00:00 INFO Régénération des images pour l'ID de pièce jointe suivant : 8306
2021-03-09T11:36:35+00:00 INFO Régénération des images pour l'ID de pièce jointe suivant : 8306
2021-03-09T11:37:07+00:00 INFO Régénération de l’image du produit annulée.
2021-03-09T11:37:08+00:00 INFO Régénération de l’image du produit annulée.
