<?xml version="1.0" encoding="UTF-8"?>
<svg width="16px" height="2px" viewBox="0 0 16 2" version="1.1" xmlns="http://www.w3.org/2000/svg" xmlns:xlink="http://www.w3.org/1999/xlink">
    <!-- Generator: Sketch 49 (51002) - http://www.bohemiancoding.com/sketch -->
    <title>ico_maps_zoom-out</title>
    <desc>Created with Sketch.</desc>
    <defs></defs>
    <g id="Symbols" stroke="none" stroke-width="1" fill="none" fill-rule="evenodd" stroke-linecap="round" stroke-linejoin="round">
        <g id="maps-zoom" transform="translate(-9.000000, -58.000000)" stroke="#1A2B48">
            <g id="-" transform="translate(0.000000, 41.000000)">
                <g id="ico_zoom_out" transform="translate(10.000000, 17.000000)">
                    <g id="ico_maps_zoom-out">
                        <path d="M0,1 L14,1" id="Shape"></path>
                    </g>
                </g>
            </g>
        </g>
    </g>
</svg>