<svg xmlns="http://www.w3.org/2000/svg" width="14" height="24" fill="none" viewBox="0 0 14 24">
    <path fill="#1A2B48" d="M12.406 0l1.57 1.605L3.232 11.987l10.742 10.378-1.569 1.607L.002 11.987 12.406 0z"/>
</svg>
